%YAML 1.1
%TAG !u! tag:unity3d.com,2011:
--- !u!114 &11400000
MonoBehaviour:
  m_ObjectHideFlags: 0
  m_CorrespondingSourceObject: {fileID: 0}
  m_PrefabInstance: {fileID: 0}
  m_PrefabAsset: {fileID: 0}
  m_GameObject: {fileID: 0}
  m_Enabled: 1
  m_EditorHideFlags: 0
  m_Script: {fileID: 11500000, guid: ea6f1dd271c5df14ba067480d23b1df8, type: 3}
  m_Name: GeneratePlane
  m_EditorClassIdentifier: 
  categoryName: Blocks
  textureImage: {fileID: 0}
  materialImage: {fileID: 0}
